Lab05
…
Question 3: in the middle?

Finding the stations that is closest to the midpoint of each state

# finding the midpoints for each state
midpoints <- dat %>%
  group_by(STATE) %>%
  summarize(
    middle_lat = mean(lat),
    middle_long = mean(lon)
  )
midpoints

# A tibble: 48 × 3
   STATE middle_lat middle_long
   <chr>      <dbl>       <dbl>
 1 AL          32.8       -86.7
 2 AR          35.2       -92.7
 3 AZ          33.9      -112. 
 4 CA          36.5      -120. 
 5 CO          39.1      -106. 
 6 CT          41.5       -72.7
 7 DE          39.2       -75.5
 8 FL          28.3       -82.4
 9 GA          32.6       -83.3
10 IA          41.9       -93.5
# ℹ 38 more rows
…
